{
  "shell_port": 61629,
  "iopub_port": 61630,
  "stdin_port": 61631,
  "control_port": 61633,
  "hb_port": 61632,
  "ip": "127.0.0.1",
  "key": "00f1be25-2a41a0bfda6cf0da9e525367",
  "transport": "tcp",
  "signature_scheme": "hmac-sha256",
  "kernel_name": ""
}