{
  "base_url": "/",
  "hostname": "localhost",
  "notebook_dir": "C:\\Users\\John",
  "password": false,
  "pid": 3796,
  "port": 8888,
  "secure": false,
  "token": "9eae04e9e4f575682578b0e27fcd197f1333deef7257e87c",
  "url": "http://localhost:8888/"
}